Untitled
…
Residual standard error: 12600 on 4119 degrees of freedom
Multiple R-squared:  0.706, Adjusted R-squared:  0.7058 
F-statistic:  3297 on 3 and 4119 DF,  p-value: < 2.2e-16

test$prediction <- predict(fit, select(ungroup(test), gni, yrs_sch, life_exp))

test %>%
  select(gdp, prediction)

Adding missing grouping variables: `Country`

# A tibble: 868 × 3
# Groups:   Country [217]
   Country       gdp prediction
   <fct>       <dbl>      <dbl>
 1 Afghanistan  584.      3500.
 2 Afghanistan  553.      3747.
 3 Afghanistan  426.      3956.
 4 Afghanistan 1704.      3710.
 5 Albania     4543.      8349.
 6 Albania     4419.      8151.
 7 Albania     4857.      8491.
 8 Albania     5159.      8264.
 9 Algeria     4153.      7965.
10 Algeria     3874.      7531.
# ℹ 858 more rows
…
